<?xml version="1.0" encoding="utf-8"?>
<!-- Generator: Adobe Illustrator 23.0.1, SVG Export Plug-In . SVG Version: 6.00 Build 0)  -->
<svg version="1.1" id="Layer_1" xmlns="http://www.w3.org/2000/svg" xmlns:xlink="http://www.w3.org/1999/xlink" x="0px" y="0px"
	 viewBox="0 0 355 264" style="enable-background:new 0 0 355 264;" xml:space="preserve">
<style type="text/css">
	.st0{fill-rule:evenodd;clip-rule:evenodd;fill: #009bdf}
</style>
<g>
	<path class="st0" d="M342,0H13C6,0,0,6,0,13v238c0,7,6,13,13,13h329c7,0,13-6,13-13V13C355,6,349,0,342,0z M307,26L173,139L47,26
		H307z M329,238H26V42l138,124c5,4,13,4,18,0L329,41V238z"/>
</g>
</svg>
