<?xml version="1.0" encoding="utf-8"?>
<!-- Generator: Adobe Illustrator 23.0.1, SVG Export Plug-In . SVG Version: 6.00 Build 0)  -->
<svg version="1.1" id="Layer_1" xmlns="http://www.w3.org/2000/svg" xmlns:xlink="http://www.w3.org/1999/xlink" x="0px" y="0px"
	 viewBox="0 0 88.1 88.1" style="enable-background:new 0 0 88.1 88.1;" xml:space="preserve">
<path  fill="#ffffff" d="M5.7,88.1L28,65.7c6.5,5.3,14.6,8.1,23.1,8.1c9.9,0,19.1-3.8,26.1-10.8c7-7,10.8-16.3,10.8-26.1s-3.8-19.1-10.8-26.1
	C70.3,3.8,61,0,51.2,0C41.3,0,32,3.8,25,10.8c-13.4,13.4-14.3,34.8-2.7,49.3L0,82.4L5.7,88.1z M30.7,57.4
	c-11.3-11.3-11.3-29.6,0-40.9C36.2,11,43.4,8,51.2,8c7.7,0,15,3,20.5,8.5c5.5,5.5,8.5,12.7,8.5,20.5s-3,15-8.5,20.5
	c-5.5,5.5-12.7,8.5-20.5,8.5C43.4,65.9,36.2,62.9,30.7,57.4z"/>
</svg>
